-------------------------------------------------------------------------------
Test set: com.act.user.UserApplicationTests
-------------------------------------------------------------------------------
Tests run: 1, Failures: 0, Errors: 0, Skipped: 0, Time elapsed: 10.117 s - in com.act.user.UserApplicationTests
